…
``` r
season_pbp |>
  filter(play_type %in% c("pass", "run")) |>
  group_by(team = posteam) |>
  summarise(off_epa = mean(epa, na.rm = T)) |>
  inner_join(season_pbp |>
  filter(play_type %in% c("pass", "run")) |>
  group_by(team = defteam) |>
  summarise(def_epa = mean(epa, na.rm = T)), by = "team") |>
  mutate(ovr_epa = off_epa + def_epa) |>
  arrange(desc(ovr_epa))
```

    ## # A tibble: 32 × 4
    ##    team  off_epa  def_epa ovr_epa
    ##    <chr>   <dbl>    <dbl>   <dbl>
    ##  1 BAL    0.214   0.0693   0.283 
    ##  2 WAS    0.214   0.00718  0.221 
    ##  3 JAX    0.0148  0.170    0.185 
    ##  4 ARI    0.0586  0.125    0.183 
    ##  5 CIN    0.0803  0.0823   0.163 
    ##  6 TB     0.0907  0.0681   0.159 
    ##  7 BUF    0.197  -0.0690   0.128 
    ##  8 ATL    0.0662  0.0541   0.120 
    ##  9 PHI    0.113  -0.00162  0.111 
    ## 10 DAL   -0.0786  0.155    0.0765
    ## # ℹ 22 more rows
…
``` r
season_pbp |>
  filter(play_type == "pass" & week >= 4) |>
  group_by(passer) |>
  summarise(n = n(),
            success_rate = round(mean(success, na.rm = T), 3)) |>
  mutate(n_pct = percent_rank(n)) |>
  filter(n_pct >= 0.5) |>
  arrange(desc(success_rate))
```

    ## # A tibble: 33 × 4
    ##    passer         n success_rate n_pct
    ##    <chr>      <int>        <dbl> <dbl>
    ##  1 L.Jackson    153        0.569 0.815
    ##  2 J.Goff        96        0.552 0.554
    ##  3 P.Mahomes    140        0.55  0.754
    ##  4 B.Mayfield   211        0.521 0.969
    ##  5 M.Stafford   139        0.518 0.723
    ##  6 T.Lawrence   161        0.516 0.877
    ##  7 J.Burrow     171        0.503 0.892
    ##  8 K.Murray     151        0.49  0.8  
    ##  9 C.Williams   116        0.483 0.662
    ## 10 J.Daniels    139        0.482 0.723
    ## # ℹ 23 more rows
…
